…
``` r
stations_json <- "stations.json"
if (!file.exists(stations_json)) {
  download.file("https://gbfs.lyft.com/gbfs/2.3/chi/en/station_information.json", stations_json)
}
stations <- fromJSON(stations_json) |>
  _$data$stations |>
  as_tibble() |>
  select(station_id, name, lon, lat) |>
  mutate(distance = 1.1)

stations
```

    # A tibble: 1,801 × 5
       station_id                           name                  lon   lat distance
       <chr>                                <chr>               <dbl> <dbl>    <dbl>
     1 1955905507044284968                  Nordica Ave & Medi… -87.8  41.9      1.1
     2 1934289361049585738                  California Ave & 3… -87.7  41.8      1.1
     3 a3b0fae6-a135-11e9-9cda-0a87ae2ba916 Glenwood Ave & Tou… -87.7  42.0      1.1
     4 a3ad4d1b-a135-11e9-9cda-0a87ae2ba916 Woodlawn Ave & Lak… -87.6  41.8      1.1
     5 a3acdae2-a135-11e9-9cda-0a87ae2ba916 Wentworth Ave & 63… -87.6  41.8      1.1
     6 a3a9f76a-a135-11e9-9cda-0a87ae2ba916 Kedzie Ave & Palme… -87.7  41.9      1.1
     7 a3af5d1c-a135-11e9-9cda-0a87ae2ba916 Western Ave & Lunt… -87.7  42.0      1.1
     8 a3a8999a-a135-11e9-9cda-0a87ae2ba916 Montrose Harbor     -87.6  42.0      1.1
     9 a3ad2d57-a135-11e9-9cda-0a87ae2ba916 State St & Pershin… -87.6  41.8      1.1
    10 1936552461714393094                  St Louis Ave & 59t… -87.7  41.8      1.1
    # ℹ 1,791 more rows
…
